<?xml version="1.0" encoding="utf-8"?>
<!-- Generator: Adobe Illustrator 23.1.1, SVG Export Plug-In . SVG Version: 6.00 Build 0)  -->
<svg version="1.1" id="Calque_1" xmlns="http://www.w3.org/2000/svg" xmlns:xlink="http://www.w3.org/1999/xlink" x="0px" y="0px"
	 viewBox="0 0 208.1 112.9" style="enable-background:new 0 0 208.1 112.9;" xml:space="preserve">
<style type="text/css">
	.Ombre_x0020_portée{fill:none;}
	.Lueur_x0020_externe_x0020_5 pt{fill:none;}
	.Néon_x0020_bleu{fill:none;stroke:#8AACDA;stroke-width:7;stroke-linecap:round;stroke-linejoin:round;}
	.Ton_x0020_clair_x0020_chrome{fill:url(#SVGID_1_);stroke:#FFFFFF;stroke-width:0.3629;stroke-miterlimit:1;}
	.Swing_GS{fill:#FFDD00;}
	.Alysse_GS{fill:#A6D0E4;}
	.st0{fill:#FFFFFF;}
	.st1{enable-background:new    ;}
	.st2{fill:#43425D;}
	.st3{fill:#E67855;}
</style>
<linearGradient id="SVGID_1_" gradientUnits="userSpaceOnUse" x1="-394.165" y1="-445.0371" x2="-394.165" y2="-446.0371">
	<stop  offset="0" style="stop-color:#656565"/>
	<stop  offset="0.618" style="stop-color:#1B1B1B"/>
	<stop  offset="0.6292" style="stop-color:#545454"/>
	<stop  offset="0.9831" style="stop-color:#3E3E3E"/>
</linearGradient>
<g id="Groupe_2350" transform="translate(1)">
	<g id="Groupe_369" transform="translate(9.32 14.343)">
		<g id="Ligne_12">
			<rect x="175" y="90.7" class="st0" width="6" height="2"/>
		</g>
		<g id="Ligne_17">
			<rect x="-1" y="90.7" class="st0" width="6" height="2"/>
		</g>
		<g id="Ligne_22">
			<rect x="88.2" y="-3.8" class="st0" width="2" height="6"/>
		</g>
	</g>
	<g id="number" transform="translate(0 0)">
		<g class="st1">
			<path class="st2" d="M1.1,107.3c-0.6,0-1.2-0.3-1.5-0.9S-1,105-1,103.9s0.2-1.9,0.5-2.5c0.4-0.6,0.9-0.8,1.5-0.8
				c0.6,0,1.1,0.3,1.5,0.8c0.4,0.6,0.5,1.4,0.5,2.5s-0.2,1.9-0.5,2.5C2.2,107,1.7,107.3,1.1,107.3z M1.1,106.6
				c0.2,0,0.4-0.1,0.5-0.2c0.1-0.1,0.3-0.3,0.4-0.5c0.1-0.2,0.2-0.5,0.3-0.8s0.1-0.7,0.1-1.2s0-0.9-0.1-1.2
				c-0.1-0.3-0.1-0.6-0.3-0.8c-0.1-0.2-0.2-0.4-0.4-0.5c-0.1-0.1-0.3-0.1-0.5-0.1c-0.2,0-0.4,0-0.5,0.1c-0.2,0.1-0.3,0.3-0.4,0.5
				s-0.2,0.5-0.3,0.8c-0.1,0.3-0.1,0.7-0.1,1.2c0,0.9,0.1,1.6,0.3,2C0.4,106.4,0.7,106.6,1.1,106.6z"/>
		</g>
		<g class="st1">
			<path class="st2" d="M193.4,107.2v-0.7h1.5v-4.7h-1.2v-0.5c0.3-0.1,0.5-0.1,0.8-0.2c0.2-0.1,0.4-0.2,0.6-0.3h0.6v5.7h1.3v0.7
				H193.4z"/>
			<path class="st2" d="M200,107.3c-0.6,0-1.2-0.3-1.5-0.9c-0.4-0.6-0.5-1.4-0.5-2.5s0.2-1.9,0.5-2.5c0.4-0.6,0.9-0.8,1.5-0.8
				c0.6,0,1.1,0.3,1.5,0.8c0.4,0.6,0.5,1.4,0.5,2.5s-0.2,1.9-0.5,2.5S200.7,107.3,200,107.3z M200,106.6c0.2,0,0.4-0.1,0.5-0.2
				c0.2-0.1,0.3-0.3,0.4-0.5c0.1-0.2,0.2-0.5,0.3-0.8c0.1-0.3,0.1-0.7,0.1-1.2s0-0.9-0.1-1.2c-0.1-0.3-0.1-0.6-0.3-0.8
				c-0.1-0.2-0.2-0.4-0.4-0.5c-0.1-0.1-0.3-0.1-0.5-0.1s-0.4,0-0.5,0.1c-0.2,0.1-0.3,0.3-0.4,0.5c-0.1,0.2-0.2,0.5-0.3,0.8
				c-0.1,0.3-0.1,0.7-0.1,1.2c0,0.9,0.1,1.6,0.3,2C199.4,106.4,199.7,106.6,200,106.6z"/>
			<path class="st2" d="M205,107.3c-0.6,0-1.2-0.3-1.5-0.9c-0.4-0.6-0.5-1.4-0.5-2.5s0.2-1.9,0.5-2.5c0.4-0.6,0.9-0.8,1.5-0.8
				c0.6,0,1.1,0.3,1.5,0.8c0.4,0.6,0.5,1.4,0.5,2.5s-0.2,1.9-0.5,2.5C206.2,107,205.7,107.3,205,107.3z M205,106.6
				c0.2,0,0.4-0.1,0.5-0.2c0.1-0.1,0.3-0.3,0.4-0.5s0.2-0.5,0.3-0.8c0.1-0.3,0.1-0.7,0.1-1.2s0-0.9-0.1-1.2
				c-0.1-0.3-0.1-0.6-0.3-0.8s-0.2-0.4-0.4-0.5c-0.2-0.1-0.3-0.1-0.5-0.1c-0.2,0-0.4,0-0.5,0.1c-0.2,0.1-0.3,0.3-0.4,0.5
				c-0.1,0.2-0.2,0.5-0.3,0.8c-0.1,0.3-0.1,0.7-0.1,1.2c0,0.9,0.1,1.6,0.3,2C204.3,106.4,204.6,106.6,205,106.6z"/>
		</g>
		<g class="st1">
			<path class="st2" d="M95.2,7.3c-0.3,0-0.5,0-0.8-0.1c-0.2-0.1-0.4-0.1-0.6-0.2s-0.4-0.2-0.5-0.3c-0.2-0.1-0.3-0.2-0.4-0.4
				l0.4-0.6c0.2,0.2,0.4,0.4,0.7,0.6c0.3,0.2,0.6,0.2,1,0.2c0.2,0,0.4,0,0.6-0.1s0.4-0.2,0.5-0.3c0.1-0.1,0.2-0.3,0.3-0.5
				c0.1-0.2,0.1-0.4,0.1-0.7c0-0.5-0.1-0.9-0.4-1.1c-0.3-0.3-0.6-0.4-1.1-0.4c-0.2,0-0.4,0-0.6,0.1c-0.2,0.1-0.4,0.2-0.6,0.3
				l-0.5-0.3l0.2-3.4h3.5v0.8h-2.7L94.3,3c0.2-0.1,0.3-0.2,0.5-0.2c0.2-0.1,0.4-0.1,0.6-0.1c0.3,0,0.6,0,0.8,0.1
				c0.3,0.1,0.5,0.2,0.7,0.4c0.2,0.2,0.4,0.4,0.5,0.7s0.2,0.6,0.2,1c0,0.4-0.1,0.7-0.2,1c-0.1,0.3-0.3,0.5-0.5,0.7
				C96.6,6.9,96.3,7,96,7.1S95.5,7.3,95.2,7.3z"/>
			<path class="st2" d="M100.8,7.3c-0.7,0-1.3-0.3-1.7-0.9c-0.4-0.6-0.6-1.5-0.6-2.7s0.2-2.1,0.6-2.7c0.4-0.6,0.9-0.9,1.7-0.9
				c0.7,0,1.3,0.3,1.7,0.9c0.4,0.6,0.6,1.5,0.6,2.7s-0.2,2.1-0.6,2.7C102,7,101.5,7.3,100.8,7.3z M100.8,6.6c0.2,0,0.4-0.1,0.6-0.2
				c0.2-0.1,0.3-0.3,0.4-0.5c0.1-0.2,0.2-0.5,0.3-0.9c0.1-0.4,0.1-0.8,0.1-1.3c0-0.5,0-1-0.1-1.3c-0.1-0.4-0.2-0.7-0.3-0.9
				c-0.1-0.2-0.3-0.4-0.4-0.5c-0.2-0.1-0.4-0.2-0.6-0.2c-0.2,0-0.4,0.1-0.6,0.2c-0.2,0.1-0.3,0.3-0.4,0.5c-0.1,0.2-0.2,0.5-0.3,0.9
				c-0.1,0.4-0.1,0.8-0.1,1.3c0,1,0.1,1.8,0.4,2.2C100,6.3,100.4,6.6,100.8,6.6z"/>
		</g>
	</g>
	<g id="Groupe_2351" transform="translate(15.963 21.547)">
		<g id="Tracé_842">
			<path class="st0" d="M156.8,91.4c-6,0-10.9-4.9-10.9-10.9v0c0-34.5-28-62.5-62.5-62.6c-34.5,0-62.5,28-62.6,62.5c0,0,0,0,0,0
				c0,6-4.9,10.9-10.9,10.9C3.9,91.4-1,86.5-1,80.5C-1.1,33.9,36.5-4,83.1-4.1s84.4,37.5,84.6,84c0,0.2,0,0.4,0,0.6
				C167.7,86.5,162.8,91.4,156.8,91.4z"/>
		</g>
	</g>
	<g id="Groupe_2352" transform="translate(15.963 27.726)">
		<g id="Tracé_843">
			<path class="st3" d="M9.9,85.2C3.9,85.2-1,80.3-1,74.3v0c0-33.5,19.8-63.7,50.4-77.2C55-5.3,61.4-2.8,63.8,2.7
				c2.4,5.5-0.1,11.9-5.6,14.4C35.5,27,20.8,49.5,20.8,74.3C20.8,80.3,16,85.2,9.9,85.2C9.9,85.2,9.9,85.2,9.9,85.2z"/>
		</g>
	</g>
</g>
</svg>
