<?xml version="1.0" encoding="utf-8"?>
<!-- Generator: Adobe Illustrator 24.0.0, SVG Export Plug-In . SVG Version: 6.00 Build 0)  -->
<svg version="1.1" id="Calque_1" xmlns="http://www.w3.org/2000/svg" xmlns:xlink="http://www.w3.org/1999/xlink" x="0px" y="0px"
	 viewBox="0 0 240.9 155.9" style="enable-background:new 0 0 240.9 155.9;" xml:space="preserve">
<style type="text/css">
	.st0{fill:#FFFFFF;}
	.st1{fill:#0C0B0C;}
	.st2{fill:#222425;}
	.st3{fill:#9C9E9F;}
	.st4{fill:none;stroke:#FFFFFF;stroke-width:0.25;stroke-miterlimit:10;}
</style>
<g id="Calque_2_1_">
</g>
<g id="Calque_1_1_">
	<g>
		<g>
			<path class="st0" d="M82.8,116.8h3c1.7,0,2.9,0.7,2.9,2.2c0,0.7-0.4,1.4-1.1,1.8c0.8,0.4,1.3,1.1,1.3,2c0,1.5-1.1,2.4-2.9,2.4
				h-3.3L82.8,116.8L82.8,116.8z M83.7,117.6v2.8H86c1,0,1.8-0.4,1.8-1.4c0-1-0.8-1.4-1.8-1.4L83.7,117.6L83.7,117.6z M86.1,124.2
				c1.1,0,1.8-0.5,1.8-1.5c0-1-0.8-1.4-1.8-1.4h-2.5v2.9H86.1z M96.3,116.6c2.4,0,4.2,1.9,4.2,4.3c0,2.4-1.8,4.3-4.2,4.3
				c-2.4,0-4.1-1.9-4.1-4.3C92.2,118.6,93.9,116.6,96.3,116.6z M96.3,124.4c1.9,0,3.2-1.5,3.2-3.4c0-1.9-1.3-3.4-3.2-3.4
				c-1.9,0-3.3,1.5-3.3,3.4C93.1,122.8,94.4,124.4,96.3,124.4z M106.6,122H105v3.1h-0.9v-8.3h2.9c1.9,0,3,1,3,2.6
				c0,1.4-0.9,2.3-2.3,2.6l2.5,3.1h-1.1L106.6,122z M105,117.6v3.6h2.1c1.2,0,2-0.6,2-1.8c0-1.1-0.8-1.8-2-1.8H105z M113.8,116.8
				h2.3c2.2,0,4.5,1,4.5,4.1c0,3.2-2.3,4.2-4.5,4.2h-2.3V116.8z M114.7,117.6v6.6h1.5c1.8,0,3.4-0.9,3.4-3.4c0-2.4-1.7-3.2-3.5-3.2
				H114.7z M124.2,116.8h5.4v0.9h-4.5v2.8h4.4v0.9h-4.4v2.9h4.5v0.9h-5.4C124.2,125.1,124.2,116.8,124.2,116.8z M139.8,125.1h-1
				l-0.5-1.9h-3.8l-0.5,1.9h-1l2.2-8.3h2.3L139.8,125.1z M134.7,122.3h3.4l-1.2-4.7h-1L134.7,122.3z M148.4,116.8h0.9v5
				c0,1.9-1.1,3.4-3.1,3.4s-3.1-1.5-3.1-3.4v-5h0.9v5.1c0,1.4,0.8,2.5,2.2,2.5c1.5,0,2.2-1.1,2.2-2.5V116.8z M155.2,121.2l-1.7,3.8
				h-1l1.9-4.3l-1.7-4.1h1l1.5,3.6h1.3l1.5-3.6h1l-1.7,4.1l1.9,4.3h-1l-1.7-3.8H155.2z"/>
		</g>
		<g>
			<g>
				<polygon class="st1" points="42.8,55.9 41.7,55.9 41.7,43.1 42.8,43.1 				"/>
			</g>
			<g>
				<polygon class="st1" points="81.9,41.9 82.9,41.9 82.9,55.2 81.9,55.1 				"/>
			</g>
			<polygon class="st2" points="79.3,54.9 79.3,68.8 95.6,66.3 95.6,56.1 			"/>
			<polygon class="st3" points="209.3,37.6 209.3,33.3 166.7,28.5 32.6,38.9 32.6,42.5 166.7,33.5 			"/>
			<polygon class="st2" points="163.2,40.7 209.3,37.6 166.7,33.5 32.6,42.5 42.4,43.1 95.6,41.5 131.3,39.5 			"/>
			<path d="M159,55.5l-23.1,1.6v7.6l23.1-3.3V55.5z M131.4,71.5V51.7l27.6-1v-5l-27.6-0.5v-5.7l31.9,1.1v24.7L131.4,71.5z"/>
			<path class="st3" d="M99.8,51.9l27,0.7v-7.1l-27,0.5V51.9z M131.3,39.5v19l-31.5-2.1v5.7l31.5,3.4v6l-35.7-5.2V41.5L131.3,39.5z"
				/>
			<path class="st4" d="M126.1,45.6"/>
			<path class="st4" d="M125.9,52.1"/>
			<path class="st4" d="M131.1,57.6"/>
			<path class="st4" d="M131.2,65"/>
			<path class="st4" d="M131.1,71.5"/>
			<path class="st4" d="M131.1,39.3"/>
			<path class="st4" d="M166.6,33.4"/>
			<path class="st4" d="M130.9,71.2"/>
			<polygon class="st3" points="39.1,53.2 39.1,61.3 79.3,68.8 79.3,54.9 			"/>
		</g>
		<g>
			<path class="st0" d="M235.2,98c1.2,0.5,1.6,1,1.6,1.8c0,1-0.9,1.7-2.2,1.7c-1.4,0-2.4-0.6-3.2-1.8l-1.4,1.4
				c0.8,1.3,2.3,2.3,4.4,2.3c2.8,0,4.4-1.6,4.4-3.6c0-1.7-0.9-2.7-3.1-3.6l-1.4-0.6c-1.3-0.5-1.7-1-1.7-1.7c0-0.7,0.6-1.4,1.7-1.4
				c1,0,1.9,0.5,2.5,1.3l1.4-1.4c-0.8-1-2-1.8-3.7-1.8c-2.2,0-3.9,1.2-3.9,3.4c0,1.6,1,2.7,2.7,3.4L235.2,98z M216.1,103.1h8.7v-1.9
				h-6.6v-3.4h6.3v-1.9h-6.3v-3.2h6.6v-1.9h-8.7L216.1,103.1L216.1,103.1z M207.8,97.6c0,2.3-0.8,3.8-2.9,3.8
				c-2.1,0-2.9-1.5-2.9-3.8v-6.9h-2.1v6.9c0,3.8,2,5.7,5,5.7c3,0,5-1.9,5-5.7v-6.9h-2.1V97.6z M187.7,98.3l2.5,2.5
				c-0.6,0.4-1.3,0.6-2.1,0.6c-2.4,0-4.2-1.9-4.2-4.5c0-2.5,1.7-4.4,4.2-4.4c2.4,0,4.1,1.9,4.1,4.4c0,0.9-0.2,1.7-0.6,2.4l-2.5-2.5
				L187.7,98.3z M181.7,96.9c0,3.6,2.7,6.4,6.3,6.4s6.3-2.8,6.3-6.4c0-3.6-2.8-6.4-6.3-6.4S181.7,93.3,181.7,96.9 M170.9,92.6h2v8.6
				h-2v1.9h6.1v-1.9h-2v-8.6h2v-1.9h-6.1L170.9,92.6L170.9,92.6z M161.1,92.6c1.8,0,2.9,0.7,2.9,2.2c0,1.6-1.1,2.2-2.9,2.2h-2.4
				v-4.3H161.1z M161.3,98.9c2.9,0,4.7-1.5,4.7-4.1c0-2.6-1.8-4-4.7-4h-4.7v12.4h2.1v-4.2H161.3z M143.3,90.7H141l4.2,8.1v4.3h2.1
				v-4.3l4.2-8.1h-2.3l-2.9,5.8L143.3,90.7z M126.7,90.7v1.9h3.7v10.5h2.1V92.6h3.8v-1.9H126.7z M117.3,92.6h1l1.6,6.1h-4.3
				L117.3,92.6z M119.9,90.7h-4.2l-3.3,12.4h2.1l0.7-2.5h5.2l0.7,2.5h2.1L119.9,90.7z M95.7,98c1.2,0.5,1.6,1,1.6,1.8
				c0,1-0.9,1.7-2.2,1.7c-1.4,0-2.4-0.6-3.2-1.8l-1.4,1.4c0.8,1.3,2.3,2.3,4.4,2.3c2.8,0,4.4-1.6,4.4-3.6c0-1.7-0.9-2.7-3.1-3.6
				l-1.4-0.6c-1.3-0.5-1.7-1-1.7-1.7c0-0.7,0.6-1.4,1.8-1.4c1,0,1.9,0.5,2.5,1.3l1.4-1.4c-0.8-1-2-1.8-3.7-1.8
				c-2.2,0-3.9,1.2-3.9,3.4c0,1.6,1,2.7,2.7,3.4L95.7,98z M76.6,103.1h8.7v-1.9h-6.6v-3.4h6.3v-1.9h-6.3v-3.2h6.6v-1.9h-8.7V103.1z
				 M70,99.5c-0.8,1.1-2,1.9-3.6,1.9c-2.5,0-4.3-1.9-4.3-4.4c0-2.6,1.8-4.5,4.3-4.5c1.6,0,2.7,0.8,3.4,1.8l1.4-1.4
				c-1-1.4-2.6-2.3-4.8-2.3c-3.6,0-6.4,2.6-6.4,6.4c0,3.8,2.8,6.4,6.5,6.4c2.3,0,3.8-1,4.9-2.3L70,99.5z M49.7,92.6h1l1.6,6.1h-4.3
				L49.7,92.6z M52.3,90.7h-4.2l-3.3,12.4h2.1l0.7-2.5h5.2l0.7,2.5h2.1L52.3,90.7z M36,92.6c1.8,0,2.9,0.7,2.9,2.2
				c0,1.6-1.1,2.2-2.9,2.2h-2.4v-4.3H36z M36.3,98.9c2.9,0,4.7-1.5,4.7-4.1c0-2.6-1.8-4-4.7-4h-4.7v12.4h2.1v-4.2H36.3z M22.1,98
				c1.2,0.5,1.6,1,1.6,1.8c0,1-0.9,1.7-2.2,1.7c-1.4,0-2.4-0.6-3.2-1.8L17,101c0.8,1.3,2.3,2.3,4.4,2.3c2.8,0,4.4-1.6,4.4-3.6
				c0-1.7-0.9-2.7-3.1-3.6l-1.4-0.6c-1.3-0.5-1.7-1-1.7-1.7c0-0.7,0.6-1.4,1.8-1.4c1,0,1.9,0.5,2.5,1.3l1.4-1.4
				c-0.8-1-2-1.8-3.7-1.8c-2.2,0-3.9,1.2-3.9,3.4c0,1.6,1,2.7,2.7,3.4L22.1,98z M3,103.1h8.7v-1.9H5.1v-3.4h6.3v-1.9H5.1v-3.2h6.6
				v-1.9H3V103.1z"/>
		</g>
	</g>
</g>
</svg>
