<?xml version="1.0" encoding="utf-8"?>
<!-- Generator: Adobe Illustrator 23.1.1, SVG Export Plug-In . SVG Version: 6.00 Build 0)  -->
<svg version="1.1" id="Layer_1" xmlns="http://www.w3.org/2000/svg" xmlns:xlink="http://www.w3.org/1999/xlink" x="0px" y="0px"
	 viewBox="0 0 336 337" style="enable-background:new 0 0 336 337;" xml:space="preserve">
<style type="text/css">
	.jg0{fill:#E69F5F;}
	.jg1{fill:#E09156;}
	.jg2{fill:#FFE1B2;}
	.jg3{fill:#623F33;}
	.jg4{fill:#E4B07B;}
	.jg5{fill:#FFD7A3;}
</style>
<g>
	<path class="jg0" d="M336,313c0,0-58.9,24-168,24S0,313,0,313l21.2-177.5C27.3,59,91.2,0,168,0h0.1c76.8,0,140.7,59,146.8,135.5
		L336,313z"/>
</g>
<g>
	<path class="jg1" d="M210.8,6.4C197.2,2.3,182.9,0,168,0H168C91.2,0,27.3,59,21.2,135.5L0,313c0,0,28.9,11.7,83.5,18.8L210.8,6.4z"
		/>
</g>
<path class="jg2" d="M280,160v-16c0-22.1-17.9-56-40-56H96c-22.1,0-40,33.9-40,56v16c-13.3,0-24,10.7-24,24s10.7,24,24,24v8
	c0,19.4,11.7,36.9,29.5,44.3l51.7,21.5c9.8,4.1,20.2,6.2,30.8,6.2l0,0c10.6,0,21-2.1,30.8-6.2l51.7-21.5
	c17.9-7.5,29.5-24.9,29.5-44.3v-8c13.3,0,24-10.7,24-24S293.3,160,280,160z"/>
<g>
	<path class="jg3" d="M224,192L224,192c-4.4,0-8-3.6-8-8v-8c0-4.4,3.6-8,8-8l0,0c4.4,0,8,3.6,8,8v8C232,188.4,228.4,192,224,192z"/>
</g>
<g>
	<g>
		<path class="jg4" d="M168,248.2c-14.2,0-27.5-3.5-36.5-9.6c-3.7-2.5-4.6-7.5-2.1-11.1c2.5-3.6,7.5-4.6,11.1-2.1
			c6.3,4.3,16.6,6.8,27.5,6.8s21.2-2.6,27.5-6.8c3.7-2.5,8.6-1.5,11.1,2.1c2.5,3.7,1.5,8.6-2.1,11.1
			C195.5,244.7,182.2,248.2,168,248.2z"/>
	</g>
</g>
<g>
	<path class="jg5" d="M98,243.7c-6.5-6.9-10-16.1-10-25.6v-34.4c43.6-3.3,102.5-32.2,137.8-59.9L216,114c0,0-71,46-160,46l0,0v0
		c-13.3,0-24,10.7-24,24s10.7,24,24,24v8c0,19.4,11.7,36.9,29.5,44.3l51.7,21.5c2.5,1.1,5.1,2,7.7,2.7
		C122.1,267.9,106.9,253.3,98,243.7z"/>
</g>
<g>
	<path class="jg3" d="M112,192L112,192c-4.4,0-8-3.6-8-8v-8c0-4.4,3.6-8,8-8l0,0c4.4,0,8,3.6,8,8v8C120,188.4,116.4,192,112,192z"/>
</g>
<path class="jg0" d="M39.7,113l0.3,53.1c75.5,0,138.1-23.6,179.2-44.8c-12.8,13.8-32,32.7-59.2,54.8c0,0,71.2-28.3,111.1-63.5v0
	c0-52.2-42.3-94.5-94.5-94.5h-42.4C81.9,18,39.5,60.6,39.7,113z"/>
<path class="st1" d="M205.8,22.6c-9.2-3-19-4.6-29.2-4.6h-42.4c-52.4,0-94.8,42.6-94.5,95l0.3,53.1c22,0,42.9-2,62.5-5.4
	C174.8,105.3,205.7,22.9,205.8,22.6z"/>
</svg>
