<?xml version="1.0" encoding="utf-8"?>
<!-- Generator: Adobe Illustrator 23.1.1, SVG Export Plug-In . SVG Version: 6.00 Build 0)  -->
<svg version="1.1" id="Layer_1" xmlns="http://www.w3.org/2000/svg" xmlns:xlink="http://www.w3.org/1999/xlink" x="0px" y="0px"
	 viewBox="0 0 288.1 288" style="enable-background:new 0 0 288.1 288;" xml:space="preserve">
<style type="text/css">
	.jb0{fill:#FFD7A3;}
	.jb1{fill:#623F33;}
	.jb2{fill:#E4B07B;}
	.jb3{fill:#FDC88E;}
	.jb4{fill:#9D6E48;}
	.jb5{fill:#8D5F3D;}
</style>
<path class="jb0" d="M256,160v-16c0-22.1-17.9-40-40-40H72c-22.1,0-40,17.9-40,40v16c-13.3,0-24,10.7-24,24s10.7,24,24,24v8
	c0,19.4,11.7,36.9,29.5,44.3l51.7,21.5c9.8,4.1,20.2,6.2,30.8,6.2l0,0c10.6,0,21-2.1,30.8-6.2l51.7-21.5
	c17.9-7.5,29.5-24.9,29.5-44.3v-8c13.3,0,24-10.7,24-24S269.3,160,256,160z"/>
<g>
	<path class="jb1" d="M88,192L88,192c-4.4,0-8-3.6-8-8v-8c0-4.4,3.6-8,8-8l0,0c4.4,0,8,3.6,8,8v8C96,188.4,92.4,192,88,192z"/>
</g>
<g>
	<path class="jb1" d="M200,192L200,192c-4.4,0-8-3.6-8-8v-8c0-4.4,3.6-8,8-8l0,0c4.4,0,8,3.6,8,8v8C208,188.4,204.4,192,200,192z"/>
</g>
<g>
	<g>
		<path class="jb2" d="M144,248.2c-14.2,0-27.5-3.5-36.5-9.6c-3.7-2.5-4.6-7.5-2.1-11.1c2.5-3.6,7.5-4.6,11.1-2.1
			c6.3,4.3,16.6,6.8,27.5,6.8s21.2-2.6,27.5-6.8c3.7-2.5,8.6-1.5,11.1,2.1c2.5,3.7,1.5,8.6-2.1,11.1
			C171.5,244.7,158.2,248.2,144,248.2z"/>
	</g>
</g>
<path class="jb3" d="M74,243.7c-6.5-6.9-10-16.1-10-25.6v-70.6c22.1-11.9,86.6-43.5,152-43.5H72c-2.8,0-5.4,0.3-8,0.9v-0.1
	c-18.3,3.7-32,19.8-32,39.2v16c-13.3,0-24,10.7-24,24s10.7,24,24,24v8c0,19.4,11.7,36.9,29.5,44.3l51.7,21.5c2.5,1.1,5.1,2,7.7,2.7
	C98.1,267.9,82.9,253.3,74,243.7z"/>
<g>
	<path class="jb4" d="M280,40c0,0-2.9-2.1-8.2-5.3C270.3,16.3,264,8,264,8l-29.2,9.7C209.4,8.5,173.6,0,128,0c0,0-5.2,5.5-16,8
		c0,0-27.2-6-56-8L40,40c0,0-40-0.3-40,48c0,17.8,9.9,62.1,14.1,80.1c4.4-4.9,10.7-8.1,17.9-8.1v-16c0-21.9,17.6-39.6,39.4-39.9
		C65.3,117.4,64,128,64,128c20-13.3,46-24,80-24h72c22.1,0,40,17.9,40,40v16c7.7,0,14.5,3.7,18.9,9.3
		C281.8,151.9,297.7,101.6,280,40z"/>
</g>
<g>
	<path class="jb5" d="M264,8l-29.2,9.7C209.4,8.5,173.6,0,128,0c0,0-5.2,5.5-16,8c0,0-27.2-6-56-8L40,40c0,0-40-0.3-40,48
		c0,17.8,9.9,62.1,14.1,80.1c4.4-4.9,10.7-8.1,17.9-8.1v-16c0-20.9,16.1-37.8,36.5-39.6c-2.1,6-4.5,14.5-4.5,23.6
		c31.5-40,76.2-54.4,112-64c35.5-9.5,40-24,40-24S251,38,264,8z"/>
</g>
</svg>
