<?xml version="1.0" encoding="utf-8"?>
<!-- Generator: Adobe Illustrator 24.0.0, SVG Export Plug-In . SVG Version: 6.00 Build 0)  -->
<svg version="1.1" id="Calque_1" xmlns="http://www.w3.org/2000/svg" xmlns:xlink="http://www.w3.org/1999/xlink" x="0px" y="0px"
	 viewBox="0 0 548 40.5" style="enable-background:new 0 0 548 40.5;" xml:space="preserve">
<style type="text/css">
	.Ombre_x0020_portée{fill:none;}
	.Lueur_x0020_externe_x0020_5 pt{fill:none;}
	.Néon_x0020_bleu{fill:none;stroke:#8AACDA;stroke-width:7;stroke-linecap:round;stroke-linejoin:round;}
	.Ton_x0020_clair_x0020_chrome{fill:url(#SVGID_1_);stroke:#FFFFFF;stroke-width:0.3629;stroke-miterlimit:1;}
	.Swing_GS{fill:#FFDD00;}
	.Alysse_GS{fill:#A6D0E4;}
	.st0{fill:#D5D966;}
	.st1{fill:#332E40;}
</style>
<linearGradient id="SVGID_1_" gradientUnits="userSpaceOnUse" x1="-226" y1="-480.2698" x2="-226" y2="-481.2698">
	<stop  offset="0" style="stop-color:#656565"/>
	<stop  offset="0.618" style="stop-color:#1B1B1B"/>
	<stop  offset="0.6292" style="stop-color:#545454"/>
	<stop  offset="0.9831" style="stop-color:#3E3E3E"/>
</linearGradient>
<g id="Groupe_4517" transform="translate(-0.022 -0.015)">
	
		<rect id="Rectangle_2410" x="3.6" y="4.3" transform="matrix(0.9649 -0.2625 0.2625 0.9649 -4.5892 6.3098)" class="st0" width="35.4" height="32.1"/>
	<g id="Groupe_4516" transform="translate(43.699 2.509)">
		<path id="Tracé_7385" class="st1" d="M19.4,1.9h5.7v24.5h8.3v5.5H19.4V1.9z"/>
		<path id="Tracé_7386" class="st1" d="M47,1.9h5.8l11.6,30h-5.9L56,25.7H43.8l-2.4,6.2h-5.9L47,1.9z M49.9,9.8l-4,10.3h8L49.9,9.8
			z"/>
		<path id="Tracé_7387" class="st1" d="M68.7,1.9h5.7v24.5h8.3v5.5H68.7V1.9z"/>
		<path id="Tracé_7388" class="st1" d="M96.2,1.9h5.8l11.6,30h-5.9l-2.4-6.2H93.1l-2.4,6.2h-5.9L96.2,1.9z M99.2,9.8l-4,10.3h8
			L99.2,9.8z"/>
		<path id="Tracé_7389" class="st1" d="M118,1.9h5.5l12.8,19.8V1.9h5.7v30h-5.5l-12.8-19.7v19.7H118L118,1.9L118,1.9z"/>
		<path id="Tracé_7390" class="st1" d="M148.9,1.9h5.5l12.8,19.8V1.9h5.7v30h-5.5l-12.8-19.7v19.7h-5.7L148.9,1.9L148.9,1.9z"/>
		<path id="Tracé_7391" class="st1" d="M179.8,1.9h16.4v5.6h-10.7v5.5h10.7v5.5h-10.7v7.9h10.7v5.6h-16.4V1.9z"/>
		<path id="Tracé_7392" class="st1" d="M212.8,1.9h5.6v30h-5.6V1.9z"/>
		<path id="Tracé_7393" class="st1" d="M227.8,1.9h5.6l7,21l7-21h5.6l5.1,30h-5.5L249.3,13l-6.4,18.9h-5.1L231.5,13l-3.3,18.9h-5.6
			L227.8,1.9z"/>
		<path id="Tracé_7394" class="st1" d="M265.4,1.9h5.6l7,21l7-21h5.6l5.1,30H290L286.8,13l-6.4,18.9h-5.1L269.1,13l-3.3,18.9h-5.6
			L265.4,1.9z"/>
		<path id="Tracé_7395" class="st1" d="M314.2,1.1c4.1-0.1,8.1,1.6,11,4.6c3,2.9,4.7,7,4.6,11.2c0.1,4.2-1.6,8.2-4.5,11.1
			c-6.2,6.1-16.1,6-22.2-0.1c-2.9-3-4.5-7-4.5-11.1C298.6,8.2,305.6,1.1,314.2,1.1C314.2,1.1,314.2,1.1,314.2,1.1z M314.2,6.7
			c-2.6,0-5.2,1-7,2.9c-1.9,2-2.9,4.6-2.8,7.4c-0.1,3,1.2,6,3.5,7.9c1.8,1.5,4.1,2.3,6.4,2.2c2.6,0,5.1-1,6.9-3
			c1.9-1.9,2.9-4.5,2.9-7.2c0-2.7-1-5.3-2.9-7.2C319.4,7.7,316.8,6.6,314.2,6.7L314.2,6.7z"/>
		<path id="Tracé_7396" class="st1" d="M335.2,31.9v-30h4.7c2-0.1,4,0.1,6,0.5c1.7,0.4,3.2,1.3,4.3,2.6c1,1.3,1.6,2.9,1.6,4.6
			c0,1.1-0.2,2.1-0.7,3.1c-0.6,1-1.4,1.9-2.4,2.6c1.6,0.7,3,1.8,4,3.2c0.9,1.4,1.3,2.9,1.2,4.5c0,1.6-0.4,3.2-1.3,4.6
			c-0.8,1.3-2,2.4-3.4,3.1c-1.8,0.8-3.8,1.1-5.7,1.1C343.5,31.9,335.2,31.9,335.2,31.9z M340.9,7.3v6.3h1.2c1.1,0.1,2.2-0.2,3.1-0.9
			c0.7-0.6,1-1.5,1-2.4c0-0.9-0.3-1.7-1-2.2c-0.9-0.6-1.9-0.9-3-0.9L340.9,7.3z M340.9,18.7v7.7h1.4c1.7,0.1,3.3-0.2,4.8-0.9
			c0.9-0.6,1.3-1.6,1.2-2.6c0.1-1.2-0.5-2.4-1.4-3.1c-1.4-0.9-3.1-1.2-4.8-1.1L340.9,18.7L340.9,18.7z"/>
		<path id="Tracé_7397" class="st1" d="M359,1.9h5.6v30H359V1.9z"/>
		<path id="Tracé_7398" class="st1" d="M371.1,1.9h5.7v24.5h8.3v5.5h-14.1V1.9z"/>
		<path id="Tracé_7399" class="st1" d="M389.1,1.9h5.6v30h-5.6V1.9z"/>
		<path id="Tracé_7400" class="st1" d="M401.2,1.9h16.4v5.6h-10.7v5.5h10.7v5.5h-10.7v7.9h10.7v5.6h-16.4V1.9z"/>
		<path id="Tracé_7401" class="st1" d="M423.3,1.9h6c2.4-0.1,4.8,0.2,7.1,0.9c1.4,0.6,2.6,1.6,3.4,3c0.9,1.5,1.3,3.1,1.3,4.9
			c0.1,1.8-0.4,3.5-1.4,4.9c-1.1,1.4-2.6,2.5-4.3,3l7.1,13.3h-6.2l-6.8-12.7H429v12.7h-5.7V1.9z M429,13.6h1.8
			c1.3,0.1,2.6-0.1,3.7-0.7c0.7-0.6,1.1-1.5,1.1-2.4c0-0.6-0.2-1.2-0.5-1.7c-0.3-0.5-0.8-0.9-1.4-1.1c-1-0.3-2.1-0.4-3.2-0.3h-1.6
			L429,13.6L429,13.6z"/>
	</g>
	
		<rect id="Rectangle_2411" x="509" y="4.1" transform="matrix(0.9649 -0.2625 0.2625 0.9649 13.1803 138.9768)" class="st0" width="35.4" height="32.1"/>
</g>
</svg>
